<?xml version="1.0" encoding="utf-8"?>
<!-- Generator: Adobe Illustrator 19.0.0, SVG Export Plug-In . SVG Version: 6.00 Build 0)  -->
<svg version="1.1" id="Layer_1" xmlns="http://www.w3.org/2000/svg" xmlns:xlink="http://www.w3.org/1999/xlink" x="0px" y="0px"
	 viewBox="-282 373 47 47" style="enable-background:new -282 373 47 47;" xml:space="preserve">
<title>icon-sim</title>
<desc>Created with Sketch.</desc>
<path id="Path_455" style="fill:#0099CC;" d="M-240.5,390.6c0-0.7-0.2-1.2-0.6-1.6l-3.2-3.1c-0.5-0.5-1-0.7-1.6-0.7
	s-1.1,0.2-1.6,0.7l-14.3,14.2l-7.9-7.9c-0.5-0.5-1-0.7-1.6-0.7s-1.1,0.2-1.6,0.7l-3.2,3.1c-0.4,0.4-0.6,1-0.6,1.6s0.2,1.1,0.6,1.6
	l12.7,12.7c0.4,0.4,0.9,0.6,1.6,0.6c0.6,0,1.2-0.2,1.6-0.6l19-19C-240.7,391.7-240.5,391.2-240.5,390.6z M-235.1,396.5
	c0,4.3-1,8.2-3.1,11.8c-2.1,3.6-4.9,6.4-8.5,8.5s-7.5,3.2-11.8,3.2c-4.2,0-8.2-1.1-11.8-3.2c-3.7-2.1-6.5-5-8.5-8.5
	c-2-3.6-3.1-7.5-3.2-11.8s0.9-8.2,3.2-11.8c2.2-3.6,5.1-6.4,8.5-8.5s7.4-3.2,11.8-3.2c4.5,0,8.4,1.1,11.8,3.2c3.4,2.1,6.2,5,8.5,8.5
	C-236,388.3-234.9,392.2-235.1,396.5z"/>
<circle style="fill:#FFFFFF;" cx="-258.6" cy="396.5" r="21.4"/>
</svg>
