<?xml version="1.0" encoding="UTF-8"?>
<svg width="18px" height="18px" viewBox="0 0 18 18" version="1.1" xmlns="http://www.w3.org/2000/svg" xmlns:xlink="http://www.w3.org/1999/xlink">
    <!-- Generator: Sketch 43.1 (39012) - http://www.bohemiancoding.com/sketch -->
    <title>icon-section-close</title>
    <desc>Created with Sketch.</desc>
    <defs></defs>
    <g id="Desktop" stroke="none" stroke-width="1" fill="none" fill-rule="evenodd">
        <g id="001B--D--Discovery-Page" transform="translate(-1160.000000, -1038.000000)" fill-rule="nonzero" fill="#0099CC">
            <g id="Group-8">
                <g id="Group-5" transform="translate(0.000000, 57.000000)">
                    <g id="icon-section-close" transform="translate(1160.000000, 981.000000)">
                        <rect id="Rectangle_97" transform="translate(8.535132, 8.535132) rotate(-45.000000) translate(-8.535132, -8.535132) " x="7.1151324" y="-2.1153676" width="2.84" height="21.301"></rect>
                        <rect id="Rectangle_98" transform="translate(8.535132, 8.535132) rotate(45.000000) translate(-8.535132, -8.535132) " x="7.1151324" y="-2.1153676" width="2.84" height="21.301"></rect>
                    </g>
                </g>
            </g>
        </g>
    </g>
</svg>