<?xml version="1.0" standalone="no"?>
<!DOCTYPE svg PUBLIC "-//W3C//DTD SVG 1.1//EN" "http://www.w3.org/Graphics/SVG/1.1/DTD/svg11.dtd">
<svg xmlns="http://www.w3.org/2000/svg">
<metadata>Copyright (C) 2016 by original authors @ fontello.com</metadata>
<defs>
<font id="duicons-custom" horiz-adv-x="1000" >
<font-face font-family="duicons-custom" font-weight="400" font-stretch="normal" units-per-em="1000" ascent="850" descent="-150" />
<missing-glyph horiz-adv-x="1000" />
<glyph glyph-name="icon-plans-information" unicode="&#xe800;" d="M500-150c-276 0-500 224-500 500 0 276 224 500 500 500s500-224 500-500c0-276-224-500-500-500m0 908c-225 0-408-183-408-408s183-408 408-408 408 183 408 408-183 408-408 408m0-696c-38 0-68 30-68 68v203c0 37 30 68 68 68 38 0 68-30 68-68v-203c0-37-30-68-68-68m0 416c-38 0-68 30-68 68v24c0 38 30 68 68 68 38 0 68-30 68-68v-24c0-38-30-68-68-68" horiz-adv-x="1000" />
</font>
</defs>
</svg>